
 ***** SUPCRT92: input/output specifications for this run

            USER-SPECIFIED  CON FILE  containing 
            T-P-D grid & option switches: qfm_hiP             

            USER-SPECIFIED  RXN FILE  containing 
            chemical reactions: qfm_hiP.in          

          THERMODYNAMIC HELGESON AND BERMAN DATABASES

           SUPCRT-GENERATED  TAB FILE  containing 
            tabulated reaction properties (this file): qfm_hiP.out         

 ***** summary of option switches 

            isat, iopt, iplot, univar, noninc:   0  2  1  0  0

 ***** summary of state conditions 

            ISOBARS(bars)  :  min, max, increment:  10000.0000  50000.0000  10000.0000
            TEMP(degC) range: min, max, increment:    300.0000   1000.0000     50.0000


************************************ REACTION   1  ************************************

 REACTION TITLE: 

      qfm                                                                             


 REACTION STOICHIOMETRY: 

         COEFF.   NAME
        -------   --------------------
         -2.000   MAGNETITE           
         -3.000   QUARTZ-ALPHA        
          3.000   FAYALITE            
          1.000   O2,g                


 STANDARD STATE PROPERTIES OF THE SPECIES AT 25 DEG C AND 1 BAR


                                     ...... BERMAN MINERALS ...... 



                           DELTA G        DELTA H           S              V      
       NAME               (  J/mol)      (  J/mol)     ( J/mol/K)    (J/mol/bar)
  --------------------  -------------  -------------  -------------  -------------
  MAGNETITE               -1014235.00    -1117402.53       146.1142          4.452
  QUARTZ-ALPHA             -856288.00     -910699.95        41.4600          2.269
  FAYALITE                -1380154.00    -1479360.11       150.9300          4.630


                             BERMAN-BROWN COEFFICIENTS
       NAME                  k0           k1           k2           k3    
  -------------------- ------------ ------------ ------------- ------------
  MAGNETITE               207.93083        0.000  -7243337.000   664356352.
  QUARTZ-ALPHA             80.01199     -240.276  -3546684.000   491568384.
  FAYALITE                248.92812    -1923.855         0.000  -139104096.


                             VOLUME PARAMETERS
       NAME              v1(10**5)    v2(10**5)    v3(10**5)    v4(10**8) 
  -------------------- ------------ ------------ ------------ ------------
  MAGNETITE              0.00013486   0.00000006  -0.00000259   0.00000000
  QUARTZ-ALPHA           0.00005422   0.00000000  -0.00000552   0.00000000
  FAYALITE               0.00012291   0.00000004  -0.00000338   0.00000000



                                           ...... GASES ...... 


                           DELTA G        DELTA H           S              V              Cp     
       NAME               (cal/mol)      (cal/mol)     (cal/mol/K)      (cc/mol)     (cal/mol/K) 
  --------------------  -------------  -------------  -------------  -------------  -------------
  O2,g                           0.             0.         49.029          0.              7.0


                             MAIER-KELLY COEFFICIENTS
       NAME              a(10**0)    b(10**3)    c(10**-5)  T limit (C)
  --------------------  ----------  ----------  ----------  ----------
  O2,g                     7.160       1.000      -0.400     2726.85



 STANDARD STATE PROPERTIES OF THE REACTION AT 25 DEG C AND 1 BAR


                                                   DELTA G     DELTA H     DELTA S     DELTA V    DELTA Cp 
  PRES(bars)  TEMP(degC)  DH2O(g/cc)    LOG K       (cal)       (cal)      (cal/K)       (cc)      (cal/K)  
  ----------  ----------  ----------  ----------  ----------  ----------  ----------  ----------  ----------
      1.000      25.000       0.000     -80.041     109195.     126392.       57.7       -18.2        -2.7



 STANDARD STATE PROPERTIES OF THE REACTION AT ELEVATED TEMPERATURES AND PRESSURES 


                                                   DELTA G     DELTA H     DELTA S     DELTA V    DELTA Cp 
  PRES(bars)  TEMP(degC)  DH2O(g/cc)    LOG K       (cal)       (cal)      (cal/K)       (cc)      (cal/K)  
  ----------  ----------  ----------  ----------  ----------  ----------  ----------  ----------  ----------

  10000.000     300.000       0.000     -34.175      89627.     124291.       53.0       -17.3       -13.5

  10000.000     350.000       0.000     -30.511      86997.     123535.       51.8       -17.4       -16.9

  10000.000     400.000       0.000     -27.413      84436.     122583.       50.3       -17.4       -21.4

  10000.000     450.000       0.000     -24.767      81953.     121374.       48.6       -17.4       -27.2

  10000.000     500.000       0.000     -22.491      79565.     119842.       46.5       -17.5       -34.4

  10000.000     550.000       0.000     -20.520      77288.     117908.       44.1       -17.6       -43.3

  10000.000     600.000       0.000     -18.809      75149.     115858.       41.7       -17.7       -48.5

  10000.000     650.000       0.000     -17.297      73064.     115531.       41.3       -17.9       -49.0

  10000.000     700.000       0.000     -15.945      70998.     115173.       40.9       -18.2       -49.8

  10000.000     750.000       0.000     -14.728      68952.     114768.       40.5       -18.5       -50.9

  10000.000     800.000       0.000     -13.629      66926.     114301.       40.1       -18.9       -52.3

  10000.000     850.000       0.000     -12.632      64918.     114099.       39.9       -19.1       -52.3

  10000.000     900.000       0.000     -11.720      62915.     114020.       39.8       -19.2       -51.8

  10000.000     950.000       0.000     -10.884      60914.     113965.       39.8       -19.3       -51.3

  10000.000    1000.000       0.000     -10.113      58915.     113935.       39.8       -19.4       -50.9


  20000.000     300.000       0.000    *** CAUTION: BEYOND P LIMIT OF APPROXIMATIONS IN MINERAL/GAS EQNS ***

  20000.000     300.000       0.000     -32.640      85599.     124291.       53.0       -16.4       -13.5

  20000.000     350.000       0.000     -29.095      82961.     123535.       51.8       -16.4       -16.9

  20000.000     400.000       0.000     -26.100      80391.     122584.       50.3       -16.5       -21.3

  20000.000     450.000       0.000     -23.542      77899.     121384.       48.6       -16.5       -26.9

  20000.000     500.000       0.000     -21.342      75501.     119873.       46.6       -16.6       -33.8

  20000.000     550.000       0.000     -19.438      73211.     117982.       44.2       -16.6       -42.1

  20000.000     600.000       0.000     -17.785      71056.     116007.       41.9       -16.6       -46.6

  20000.000     650.000       0.000     -16.323      68950.     115796.       41.6       -16.7       -46.2

  20000.000     700.000       0.000     -15.014      66854.     115604.       41.4       -16.7       -45.9

  20000.000     750.000       0.000     -13.835      64768.     115422.       41.2       -16.8       -45.8

  20000.000     800.000       0.000     -12.767      62691.     115242.       41.1       -16.9       -45.9

  20000.000     850.000       0.000     -11.796      60621.     115053.       40.9       -17.0       -46.2

  20000.000     900.000       0.000     -10.909      58560.     114842.       40.7       -17.2       -46.7

  20000.000     950.000       0.000     -10.097      56509.     114595.       40.5       -17.4       -47.6

  20000.000    1000.000       0.000      -9.350      54468.     114295.       40.3       -17.7       -48.8


  30000.000     300.000       0.000    *** CAUTION: BEYOND P LIMIT OF APPROXIMATIONS IN MINERAL/GAS EQNS ***

  30000.000     300.000       0.000     -31.179      81768.     124291.       53.0       -15.7       -13.5

  30000.000     350.000       0.000     -27.749      79122.     123535.       51.8       -15.7       -16.9

  30000.000     400.000       0.000     -24.850      76543.     122584.       50.3       -15.7       -21.3

  30000.000     450.000       0.000     -22.377      74042.     121384.       48.6       -15.8       -26.9

  30000.000     500.000       0.000     -20.249      71635.     119873.       46.6       -15.8       -33.8

  30000.000     550.000       0.000     -18.409      69336.     117982.       44.2       -15.9       -42.1

  30000.000     600.000       0.000     -16.813      67171.     116007.       41.9       -15.9       -46.6

  30000.000     650.000       0.000     -15.401      65056.     115799.       41.6       -15.9       -46.1

  30000.000     700.000       0.000     -14.137      62950.     115617.       41.4       -16.0       -45.6

  30000.000     750.000       0.000     -12.998      60853.     115461.       41.3       -16.0       -45.1

  30000.000     800.000       0.000     -11.967      58763.     115332.       41.2       -16.1       -44.5

  30000.000     850.000       0.000     -11.028      56677.     115227.       41.1       -16.1       -44.1

  30000.000     900.000       0.000     -10.171      54595.     115144.       41.0       -16.1       -43.7

  30000.000     950.000       0.000      -9.383      52516.     115076.       40.9       -16.2       -43.5

  30000.000    1000.000       0.000      -8.658      50439.     115015.       40.9       -16.3       -43.4


  40000.000     300.000       0.000    *** CAUTION: BEYOND P LIMIT OF APPROXIMATIONS IN MINERAL/GAS EQNS ***

  40000.000     300.000       0.000     -29.778      78094.     124291.       53.0       -15.1       -13.5

  40000.000     350.000       0.000     -26.457      75438.     123535.       51.8       -15.1       -16.9

  40000.000     400.000       0.000     -23.652      72851.     122584.       50.3       -15.2       -21.3

  40000.000     450.000       0.000     -21.258      70341.     121384.       48.6       -15.2       -26.9

  40000.000     500.000       0.000     -19.200      67925.     119873.       46.6       -15.3       -33.8

  40000.000     550.000       0.000     -17.421      65617.     117982.       44.2       -15.3       -42.1

  40000.000     600.000       0.000     -15.880      63443.     116007.       41.9       -15.3       -46.6

  40000.000     650.000       0.000     -14.516      61318.     115799.       41.6       -15.4       -46.1

  40000.000     700.000       0.000     -13.296      59203.     115617.       41.4       -15.4       -45.6

  40000.000     750.000       0.000     -12.196      57096.     115461.       41.3       -15.4       -45.1

  40000.000     800.000       0.000     -11.200      54996.     115332.       41.2       -15.5       -44.5

  40000.000     850.000       0.000     -10.293      52900.     115227.       41.1       -15.5       -44.0

  40000.000     900.000       0.000      -9.465      50808.     115149.       41.0       -15.6       -43.5

  40000.000     950.000       0.000      -8.705      48718.     115094.       40.9       -15.6       -43.1

  40000.000    1000.000       0.000      -8.004      46629.     115064.       40.9       -15.7       -42.6


  50000.000     300.000       0.000    *** CAUTION: BEYOND P LIMIT OF APPROXIMATIONS IN MINERAL/GAS EQNS ***

  50000.000     300.000       0.000     -28.420      74534.     124291.       53.0       -14.7       -13.5

  50000.000     350.000       0.000     -25.206      71871.     123535.       51.8       -14.7       -16.9

  50000.000     400.000       0.000     -22.491      69274.     122584.       50.3       -14.8       -21.3

  50000.000     450.000       0.000     -20.175      66756.     121384.       48.6       -14.8       -26.9

  50000.000     500.000       0.000     -18.184      64331.     119873.       46.6       -14.9       -33.8

  50000.000     550.000       0.000     -16.465      62014.     117982.       44.2       -14.9       -42.1

  50000.000     600.000       0.000     -14.975      59830.     116007.       41.9       -14.9       -46.6

  50000.000     650.000       0.000     -13.659      57696.     115799.       41.6       -15.0       -46.1

  50000.000     700.000       0.000     -12.480      55571.     115617.       41.4       -15.0       -45.6

  50000.000     750.000       0.000     -11.418      53455.     115461.       41.3       -15.1       -45.1

  50000.000     800.000       0.000     -10.456      51344.     115332.       41.2       -15.1       -44.5

  50000.000     850.000       0.000      -9.581      49238.     115227.       41.1       -15.1       -44.0

  50000.000     900.000       0.000      -8.781      47136.     115149.       41.0       -15.2       -43.5

  50000.000     950.000       0.000      -8.047      45036.     115094.       40.9       -15.2       -43.1

  50000.000    1000.000       0.000      -7.370      42936.     115064.       40.9       -15.3       -42.6

